%YAML 1.1
%TAG !u! tag:unity3d.com,2011:
--- !u!114 &11400000
MonoBehaviour:
  m_ObjectHideFlags: 0
  m_CorrespondingSourceObject: {fileID: 0}
  m_PrefabInstance: {fileID: 0}
  m_PrefabAsset: {fileID: 0}
  m_GameObject: {fileID: 0}
  m_Enabled: 1
  m_EditorHideFlags: 0
  m_Script: {fileID: 11500000, guid: c5a93787f6e538a4599e2f54ce6f04d3, type: 3}
  m_Name: 90BMP
  m_EditorClassIdentifier: 
  bmp: 90BMP
  registeredClips:
  - name: Bounce
    style: 0
    clips:
    - name: Bounce0
      audioClip: {fileID: 8300000, guid: 37c8ba45579ac85449b4cace2dc6f0a6, type: 3}
    - name: Bounce1
      audioClip: {fileID: 8300000, guid: 2aa01a9f1957415459f71228e1f9f557, type: 3}
    - name: Bounce2
      audioClip: {fileID: 8300000, guid: b8673cfeacd1a694190064943798f398, type: 3}
  - name: Dissonance
    style: 1
    clips:
    - name: Dissonance0
      audioClip: {fileID: 8300000, guid: a322a15cab616bb4c9cb8991c9da1b65, type: 3}
    - name: Dissonance1
      audioClip: {fileID: 8300000, guid: 0c9cdad743249cb4ba8cd7d206325e5e, type: 3}
    - name: Dissonance2
      audioClip: {fileID: 8300000, guid: bfb3b6e83bcad664191bcb44068d6a93, type: 3}
  - name: Dnb
    style: 2
    clips:
    - name: Dnb0
      audioClip: {fileID: 8300000, guid: a3e0faf2ed8c1514fab82939f771dd12, type: 3}
    - name: Dnb1
      audioClip: {fileID: 8300000, guid: 2c0afbd6d6a0d484eb8b583efdf7df46, type: 3}
    - name: Dnb2
      audioClip: {fileID: 8300000, guid: 719ad2c750fb32046af1ddebf195f6fd, type: 3}
  - name: Edm
    style: 3
    clips:
    - name: Edm0
      audioClip: {fileID: 8300000, guid: d2cfd075835d38e4da6ed2f95e0532b4, type: 3}
    - name: Edm1
      audioClip: {fileID: 8300000, guid: a7d890aa56a427e4dbc3b6748dc3eedc, type: 3}
    - name: Edm2
      audioClip: {fileID: 8300000, guid: 414c27b3650a7fe49abfdc715f94d9ec, type: 3}
  - name: Garage
    style: 4
    clips:
    - name: Garage0
      audioClip: {fileID: 8300000, guid: f70b9b596f81df146a7b4e014c0cfc2b, type: 3}
    - name: Garage1
      audioClip: {fileID: 8300000, guid: 50e3dc8d0ee91dc4fbf0b43dc2ad42c7, type: 3}
    - name: Garage2
      audioClip: {fileID: 8300000, guid: b8151110accab2b488cf3c79ab0a2da1, type: 3}
  - name: Grime
    style: 5
    clips:
    - name: Grime0
      audioClip: {fileID: 8300000, guid: 127c8d0a0da60b64d8c100f6a86c7dff, type: 3}
    - name: Grime1
      audioClip: {fileID: 8300000, guid: b7d1b8b1994e64143bfbc88cea0f9ef6, type: 3}
    - name: Grime2
      audioClip: {fileID: 8300000, guid: 2be9f0ee835053645bedb1f3598463d9, type: 3}
  - name: Horns
    style: 6
    clips:
    - name: Horns0
      audioClip: {fileID: 8300000, guid: c19dc477b66d0b14fb174df67a4641b4, type: 3}
    - name: Horns1
      audioClip: {fileID: 8300000, guid: b1d232f5114ddd244863678eb4f5f066, type: 3}
    - name: Horns2
      audioClip: {fileID: 8300000, guid: 05cf866fe7e97fb42abed9f6e4c33334, type: 3}
  - name: Minimal
    style: 7
    clips:
    - name: Minimal0
      audioClip: {fileID: 8300000, guid: bb02847542c178e4d9e9935372560a7d, type: 3}
    - name: Minimal1
      audioClip: {fileID: 8300000, guid: 62cf4aa00db9c5244be738a212b76af1, type: 3}
    - name: Minimal2
      audioClip: {fileID: 8300000, guid: 2f6c3dd4b9a7a2c448d6c93b657a1245, type: 3}
  - name: Percussive
    style: 8
    clips:
    - name: Percussive0
      audioClip: {fileID: 8300000, guid: ac764740681e9984098fa17a8b4d1f31, type: 3}
    - name: Percussive1
      audioClip: {fileID: 8300000, guid: 10a514ffa78e79842bcc2efef247f38a, type: 3}
    - name: Percussive2
      audioClip: {fileID: 8300000, guid: 58092f456508fd043943c4e92530765d, type: 3}
