%YAML 1.1
%TAG !u! tag:unity3d.com,2011:
--- !u!114 &11400000
MonoBehaviour:
  m_ObjectHideFlags: 0
  m_CorrespondingSourceObject: {fileID: 0}
  m_PrefabInstance: {fileID: 0}
  m_PrefabAsset: {fileID: 0}
  m_GameObject: {fileID: 0}
  m_Enabled: 1
  m_EditorHideFlags: 0
  m_Script: {fileID: 11500000, guid: 7986ed21d54b4c1eb819b7ae61240fe0, type: 3}
  m_Name: Horns
  m_EditorClassIdentifier: 
  style: 6
  patterns:
  - step: 0200000004000000
  - step: 0000000003000000
  - step: 0300000004000000
  - step: 0000000003000000
  - step: 0400000004000000
  - step: 0100000002000000
  - step: 0000000004000000
  - step: 0100000002000000
  - step: 0000000004000000
  - step: 0400000004000000
